[
    {
       "title": "Clean the kitchen",
       "amount":400,
       "age":20,
       "description": "Mop the floor, wipe the countertop and don't forget to take out the trash!"
    },
    {
       "title": "Call Mom",
       "amount":300,
       "age":10,
       "description": "It's her birthday!"
    },
    {
       "title": "Water flowers",
       "amount":350,
       "age":15,
       "description": "They need water, or they will die."
    }
 ]